{
    "tracks": {
        "href": "https://api.spotify.com/v1/search?query=spanish+bombs&type=track&market=US&offset=0&limit=5",
        "items": [
            {
                "album": {
                    "album_type": "album",
                    "artists": [
                        {
                            "external_urls": {
                                "spotify": "https://open.spotify.com/artist/3RGLhK1IP9jnYFH4BRFJBS"
                            },
                            "href": "https://api.spotify.com/v1/artists/3RGLhK1IP9jnYFH4BRFJBS",
                            "id": "3RGLhK1IP9jnYFH4BRFJBS",
                            "name": "The Clash",
                            "type": "artist",
                            "uri": "spotify:artist:3RGLhK1IP9jnYFH4BRFJBS"
                        }
                    ],
                    "available_markets": [
                    ],
                    "external_urls": {
                        "spotify": "https://open.spotify.com/album/6FCzvataOZh68j8OKzOt9a"
                    },
                    "href": "https://api.spotify.com/v1/albums/6FCzvataOZh68j8OKzOt9a",
                    "id": "6FCzvataOZh68j8OKzOt9a",
                    "images": [
                        {
                            "height": 640,
                            "url": "https://i.scdn.co/image/ca8162e8245bd9f949c8d6b1cd929e43f6866f41",
                            "width": 640
                        },
                        {
                            "height": 300,
                            "url": "https://i.scdn.co/image/4c77ca284cfc7cc889de34407ed25864c3f289e8",
                            "width": 300
                        },
                        {
                            "height": 64,
                            "url": "https://i.scdn.co/image/a97b4f819b808d2032b62cad990d8fd255c30b92",
                            "width": 64
                        }
                    ],
                    "name": "London Calling",
                    "release_date": "1979",
                    "release_date_precision": "year",
                    "total_tracks": 19,
                    "type": "album",
                    "uri": "spotify:album:6FCzvataOZh68j8OKzOt9a"
                },
                "artists": [
                    {
                        "external_urls": {
                            "spotify": "https://open.spotify.com/artist/3RGLhK1IP9jnYFH4BRFJBS"
                        },
                        "href": "https://api.spotify.com/v1/artists/3RGLhK1IP9jnYFH4BRFJBS",
                        "id": "3RGLhK1IP9jnYFH4BRFJBS",
                        "name": "The Clash",
                        "type": "artist",
                        "uri": "spotify:artist:3RGLhK1IP9jnYFH4BRFJBS"
                    }
                ],
                "available_markets": [
                ],
                "disc_number": 1,
                "duration_ms": 198866,
                "explicit": false,
                "external_ids": {
                    "isrc": "GBARL1200685"
                },
                "external_urls": {
                    "spotify": "https://open.spotify.com/track/6wtmql7FJ7SSLuSw8JD8rX"
                },
                "href": "https://api.spotify.com/v1/tracks/6wtmql7FJ7SSLuSw8JD8rX",
                "id": "6wtmql7FJ7SSLuSw8JD8rX",
                "is_local": false,
                "name": "Spanish Bombs",
                "popularity": 53,
                "preview_url": "https://p.scdn.co/mp3-preview/8fefb188f0c54e1d1de759d573b8932e4e1da95f?cid=774b29d4f13844c495f206cafdad9c86",
                "track_number": 6,
                "type": "track",
                "uri": "spotify:track:6wtmql7FJ7SSLuSw8JD8rX"
            },
            {
                "album": {
                    "album_type": "album",
                    "artists": [
                        {
                            "external_urls": {
                                "spotify": "https://open.spotify.com/artist/3RGLhK1IP9jnYFH4BRFJBS"
                            },
                            "href": "https://api.spotify.com/v1/artists/3RGLhK1IP9jnYFH4BRFJBS",
                            "id": "3RGLhK1IP9jnYFH4BRFJBS",
                            "name": "The Clash",
                            "type": "artist",
                            "uri": "spotify:artist:3RGLhK1IP9jnYFH4BRFJBS"
                        }
                    ],
                    "available_markets": [
                    ],
                    "external_urls": {
                        "spotify": "https://open.spotify.com/album/3TZuLZx0zB3Q45aQXDswb9"
                    },
                    "href": "https://api.spotify.com/v1/albums/3TZuLZx0zB3Q45aQXDswb9",
                    "id": "3TZuLZx0zB3Q45aQXDswb9",
                    "images": [
                        {
                            "height": 572,
                            "url": "https://i.scdn.co/image/79aa24680be260f78bd24ad68153f758bd7e6c9e",
                            "width": 640
                        },
                        {
                            "height": 268,
                            "url": "https://i.scdn.co/image/ed75caa74bb5ff141189fecec0a530cf20e32997",
                            "width": 300
                        },
                        {
                            "height": 57,
                            "url": "https://i.scdn.co/image/40d08ec6d4a5f904715baadb3d227957f33df456",
                            "width": 64
                        }
                    ],
                    "name": "London Calling (Legacy Edition)",
                    "release_date": "1979",
                    "release_date_precision": "year",
                    "total_tracks": 40,
                    "type": "album",
                    "uri": "spotify:album:3TZuLZx0zB3Q45aQXDswb9"
                },
                "artists": [
                    {
                        "external_urls": {
                            "spotify": "https://open.spotify.com/artist/3RGLhK1IP9jnYFH4BRFJBS"
                        },
                        "href": "https://api.spotify.com/v1/artists/3RGLhK1IP9jnYFH4BRFJBS",
                        "id": "3RGLhK1IP9jnYFH4BRFJBS",
                        "name": "The Clash",
                        "type": "artist",
                        "uri": "spotify:artist:3RGLhK1IP9jnYFH4BRFJBS"
                    }
                ],
                "available_markets": [
                ],
                "disc_number": 1,
                "duration_ms": 198866,
                "explicit": false,
                "external_ids": {
                    "isrc": "GBBBN7902022"
                },
                "external_urls": {
                    "spotify": "https://open.spotify.com/track/6aLCZUnreez0cBOjKNeLDH"
                },
                "href": "https://api.spotify.com/v1/tracks/6aLCZUnreez0cBOjKNeLDH",
                "id": "6aLCZUnreez0cBOjKNeLDH",
                "is_local": false,
                "name": "Spanish Bombs",
                "popularity": 37,
                "preview_url": "https://p.scdn.co/mp3-preview/d402ea1470e2861ca15a93e9be44132a019a1c87?cid=774b29d4f13844c495f206cafdad9c86",
                "track_number": 6,
                "type": "track",
                "uri": "spotify:track:6aLCZUnreez0cBOjKNeLDH"
            },
            {
                "album": {
                    "album_type": "album",
                    "artists": [
                        {
                            "external_urls": {
                                "spotify": "https://open.spotify.com/artist/2mkMNs2mphrkggZ7me38j1"
                            },
                            "href": "https://api.spotify.com/v1/artists/2mkMNs2mphrkggZ7me38j1",
                            "id": "2mkMNs2mphrkggZ7me38j1",
                            "name": "Tijuana No!",
                            "type": "artist",
                            "uri": "spotify:artist:2mkMNs2mphrkggZ7me38j1"
                        }
                    ],
                    "available_markets": [
                    ],
                    "external_urls": {
                        "spotify": "https://open.spotify.com/album/72O6QDXsk2ZkNgZYY2PPF2"
                    },
                    "href": "https://api.spotify.com/v1/albums/72O6QDXsk2ZkNgZYY2PPF2",
                    "id": "72O6QDXsk2ZkNgZYY2PPF2",
                    "images": [
                        {
                            "height": 640,
                            "url": "https://i.scdn.co/image/bec9a29409398433a49a0028642a15dd8713c97e",
                            "width": 636
                        },
                        {
                            "height": 300,
                            "url": "https://i.scdn.co/image/207daefb6dc4eb4f36499d4e90c527015891ad36",
                            "width": 298
                        },
                        {
                            "height": 64,
                            "url": "https://i.scdn.co/image/f8ec7703dbea1a7011a423ec1908ae61806c1a8c",
                            "width": 64
                        }
                    ],
                    "name": "Contra-Revolucion Avenue",
                    "release_date": "1998-04-07",
                    "release_date_precision": "day",
                    "total_tracks": 13,
                    "type": "album",
                    "uri": "spotify:album:72O6QDXsk2ZkNgZYY2PPF2"
                },
                "artists": [
                    {
                        "external_urls": {
                            "spotify": "https://open.spotify.com/artist/2mkMNs2mphrkggZ7me38j1"
                        },
                        "href": "https://api.spotify.com/v1/artists/2mkMNs2mphrkggZ7me38j1",
                        "id": "2mkMNs2mphrkggZ7me38j1",
                        "name": "Tijuana No!",
                        "type": "artist",
                        "uri": "spotify:artist:2mkMNs2mphrkggZ7me38j1"
                    }
                ],
                "available_markets": [
                ],
                "disc_number": 1,
                "duration_ms": 182400,
                "explicit": false,
                "external_ids": {
                    "isrc": "USBL10001594"
                },
                "external_urls": {
                    "spotify": "https://open.spotify.com/track/5hRXh6FJLgjzERxIWbvm2M"
                },
                "href": "https://api.spotify.com/v1/tracks/5hRXh6FJLgjzERxIWbvm2M",
                "id": "5hRXh6FJLgjzERxIWbvm2M",
                "is_local": false,
                "name": "Spanish Bombs",
                "popularity": 39,
                "preview_url": "https://p.scdn.co/mp3-preview/3afcc7a05fce4864aeb56acd018acc831612c0fa?cid=774b29d4f13844c495f206cafdad9c86",
                "track_number": 7,
                "type": "track",
                "uri": "spotify:track:5hRXh6FJLgjzERxIWbvm2M"
            },
            {
                "album": {
                    "album_type": "album",
                    "artists": [
                        {
                            "external_urls": {
                                "spotify": "https://open.spotify.com/artist/3RGLhK1IP9jnYFH4BRFJBS"
                            },
                            "href": "https://api.spotify.com/v1/artists/3RGLhK1IP9jnYFH4BRFJBS",
                            "id": "3RGLhK1IP9jnYFH4BRFJBS",
                            "name": "The Clash",
                            "type": "artist",
                            "uri": "spotify:artist:3RGLhK1IP9jnYFH4BRFJBS"
                        }
                    ],
                    "available_markets": [
                    ],
                    "external_urls": {
                        "spotify": "https://open.spotify.com/album/4dMWTj1OkiCKFN5yBMP1vS"
                    },
                    "href": "https://api.spotify.com/v1/albums/4dMWTj1OkiCKFN5yBMP1vS",
                    "id": "4dMWTj1OkiCKFN5yBMP1vS",
                    "images": [
                        {
                            "height": 635,
                            "url": "https://i.scdn.co/image/76a3761203a3b60b2800460539e2733f4a2337df",
                            "width": 640
                        },
                        {
                            "height": 298,
                            "url": "https://i.scdn.co/image/eac67331d88ae9bc113be987051bb4fa9573548d",
                            "width": 300
                        },
                        {
                            "height": 63,
                            "url": "https://i.scdn.co/image/a01a5948c252e2b7da4ed7a765dce51320630263",
                            "width": 64
                        }
                    ],
                    "name": "Live at Shea Stadium",
                    "release_date": "2008",
                    "release_date_precision": "year",
                    "total_tracks": 16,
                    "type": "album",
                    "uri": "spotify:album:4dMWTj1OkiCKFN5yBMP1vS"
                },
                "artists": [
                    {
                        "external_urls": {
                            "spotify": "https://open.spotify.com/artist/3RGLhK1IP9jnYFH4BRFJBS"
                        },
                        "href": "https://api.spotify.com/v1/artists/3RGLhK1IP9jnYFH4BRFJBS",
                        "id": "3RGLhK1IP9jnYFH4BRFJBS",
                        "name": "The Clash",
                        "type": "artist",
                        "uri": "spotify:artist:3RGLhK1IP9jnYFH4BRFJBS"
                    }
                ],
                "available_markets": [
                ],
                "disc_number": 1,
                "duration_ms": 198333,
                "explicit": false,
                "external_ids": {
                    "isrc": "GBARL1300652"
                },
                "external_urls": {
                    "spotify": "https://open.spotify.com/track/6fmP4qiEAPFbAxDpcC2AJt"
                },
                "href": "https://api.spotify.com/v1/tracks/6fmP4qiEAPFbAxDpcC2AJt",
                "id": "6fmP4qiEAPFbAxDpcC2AJt",
                "is_local": false,
                "name": "Spanish Bombs - Live at Shea Stadium",
                "popularity": 30,
                "preview_url": "https://p.scdn.co/mp3-preview/014ef1bbfbfd6bf2443e7a6725f0405d50b750ef?cid=774b29d4f13844c495f206cafdad9c86",
                "track_number": 12,
                "type": "track",
                "uri": "spotify:track:6fmP4qiEAPFbAxDpcC2AJt"
            },
            {
                "album": {
                    "album_type": "compilation",
                    "artists": [
                        {
                            "external_urls": {
                                "spotify": "https://open.spotify.com/artist/3RGLhK1IP9jnYFH4BRFJBS"
                            },
                            "href": "https://api.spotify.com/v1/artists/3RGLhK1IP9jnYFH4BRFJBS",
                            "id": "3RGLhK1IP9jnYFH4BRFJBS",
                            "name": "The Clash",
                            "type": "artist",
                            "uri": "spotify:artist:3RGLhK1IP9jnYFH4BRFJBS"
                        }
                    ],
                    "available_markets": [
                    ],
                    "external_urls": {
                        "spotify": "https://open.spotify.com/album/48xJ1Xj8V4snc0am3T0SoF"
                    },
                    "href": "https://api.spotify.com/v1/albums/48xJ1Xj8V4snc0am3T0SoF",
                    "id": "48xJ1Xj8V4snc0am3T0SoF",
                    "images": [
                        {
                            "height": 640,
                            "url": "https://i.scdn.co/image/fe841b7ad5a0d5e02d42fab2be70f136343c3324",
                            "width": 640
                        },
                        {
                            "height": 300,
                            "url": "https://i.scdn.co/image/3fb0dd430018e4ee0886bdc943c367f3530d30a7",
                            "width": 300
                        },
                        {
                            "height": 64,
                            "url": "https://i.scdn.co/image/38110c4260e09f78356581b0c7ded52a905316d0",
                            "width": 64
                        }
                    ],
                    "name": "Sound System",
                    "release_date": "2013-09-06",
                    "release_date_precision": "day",
                    "total_tracks": 143,
                    "type": "album",
                    "uri": "spotify:album:48xJ1Xj8V4snc0am3T0SoF"
                },
                "artists": [
                    {
                        "external_urls": {
                            "spotify": "https://open.spotify.com/artist/3RGLhK1IP9jnYFH4BRFJBS"
                        },
                        "href": "https://api.spotify.com/v1/artists/3RGLhK1IP9jnYFH4BRFJBS",
                        "id": "3RGLhK1IP9jnYFH4BRFJBS",
                        "name": "The Clash",
                        "type": "artist",
                        "uri": "spotify:artist:3RGLhK1IP9jnYFH4BRFJBS"
                    }
                ],
                "available_markets": [
                ],
                "disc_number": 3,
                "duration_ms": 198866,
                "explicit": false,
                "external_ids": {
                    "isrc": "GBARL1200685"
                },
                "external_urls": {
                    "spotify": "https://open.spotify.com/track/3Ss8AHF3vDihGl1d7gylzW"
                },
                "href": "https://api.spotify.com/v1/tracks/3Ss8AHF3vDihGl1d7gylzW",
                "id": "3Ss8AHF3vDihGl1d7gylzW",
                "is_local": false,
                "name": "Spanish Bombs",
                "popularity": 24,
                "preview_url": "https://p.scdn.co/mp3-preview/8fefb188f0c54e1d1de759d573b8932e4e1da95f?cid=774b29d4f13844c495f206cafdad9c86",
                "track_number": 6,
                "type": "track",
                "uri": "spotify:track:3Ss8AHF3vDihGl1d7gylzW"
            }
        ],
        "limit": 5,
        "next": "https://api.spotify.com/v1/search?query=spanish+bombs&type=track&market=US&offset=5&limit=5",
        "offset": 0,
        "previous": null,
        "total": 57
    }
}